{
    "default": {
        "designId": "defaultShip",
        "components": {
            "rear": {
                "designId": "engineSize4",
                "engineRole": "MAIN"
            },
            "front": {
                "designId": "engineSize3",
                "engineRole": "REVERSE"
            },
            "front-left": {
                "designId": "engineSize1",
                "engineRole": "BACKWARD"
            },
            "front-right": {
                "designId": "engineSize1",
                "engineRole": "BACKWARD"
            },
            "rear-left": {
                "designId": "engineSize1",
                "engineRole": "FORWARD"
            },
            "rear-right": {
                "designId": "engineSize1",
                "engineRole": "FORWARD"
            },
            "left": {
                "designId": "engineSize2",
                "engineRole": "RIGHTWARD"
            },
            "right": {
                "designId": "engineSize2",
                "engineRole": "LEFTWARD"
            },
            "gun": {
                "designId": "gunSmall"
            }
        }
    },
    "plane": {
        "designId": "plane",
        "mountedComponents": {
            "rear": {
                "designId": "engineSize4",
                "engineRole": "MAIN"
            }
        }
    }
}
